1;Studies at BMSTU
3;Chased by a robot
2;Nerd
2;PhD at Physics
1;Always lacks in time
4;Lacose intolerance
9;Married Leonard
8;Has a pet dog
7;In love with Sheldon
2;In Love with Amy
4;Married Penny
5;Married Howard
6;Married Bernadette
6;Went to space